{
    "app-id" : "garden.turtle.Jellybean.Devel",
    "runtime" : "org.gnome.Platform",
    "runtime-version" : "47",
    "sdk" : "org.gnome.Sdk",
    "sdk-extensions" : [
        "org.freedesktop.Sdk.Extension.vala"
    ],
    "command" : "stockpile",
    "finish-args" : [
        "--share=ipc",
        "--socket=fallback-x11",
        "--device=dri",
        "--socket=wayland"
    ],
    "build-options" : {
        "append-path" : "/usr/lib/sdk/vala/bin",
        "prepend-ld-library-path" : "/usr/lib/sdk/vala/lib"
    },
    "cleanup" : [
        "/include",
        "/lib/pkgconfig",
        "/man",
        "/share/doc",
        "/share/gtk-doc",
        "/share/man",
        "/share/pkgconfig",
        "/share/vala",
        "*.la",
        "*.a"
    ],
    "modules" : [
        {
            "name" : "blueprint-compiler",
            "buildsystem" : "meson",
            "cleanup" : [
                "*"
            ],
            "sources" : [
                {
                    "type" : "git",
                    "url" : "https://gitlab.gnome.org/jwestman/blueprint-compiler",
                    "branch" : "main"
                }
            ]
        },
        {
            "name" : "stockpile",
            "buildsystem" : "meson",
            "config-opts" : [
                "-Dprofile=development"
            ],
            "sources" : [
                {
                    "type" : "git",
                    "url" : "."
                }
            ]
        }
    ]
}
